\BOOKMARK [0][-]{chapter.1}{Introduzione}{}% 1
\BOOKMARK [0][-]{chapter.2}{Advenias \040Care\256}{}% 2
\BOOKMARK [1][-]{section.2.1}{Stato del prodotto attuale}{chapter.2}% 3
\BOOKMARK [1][-]{section.2.2}{Modulo aggiunto}{chapter.2}% 4
\BOOKMARK [2][-]{subsection.2.2.1}{Obiettivo}{section.2.2}% 5
\BOOKMARK [2][-]{subsection.2.2.2}{Specifiche}{section.2.2}% 6
\BOOKMARK [2][-]{subsection.2.2.3}{Analisi funzionale}{section.2.2}% 7
\BOOKMARK [0][-]{chapter.3}{Il progetto}{}% 8
\BOOKMARK [1][-]{section.3.1}{Progettazione}{chapter.3}% 9
\BOOKMARK [1][-]{section.3.2}{ Tecnologie di riferimento}{chapter.3}% 10
\BOOKMARK [2][-]{subsection.3.2.1}{BDMS}{section.3.2}% 11
\BOOKMARK [2][-]{subsection.3.2.2}{Framework Ruby on Rails}{section.3.2}% 12
\BOOKMARK [2][-]{subsection.3.2.3}{Vue e Quasar Framework}{section.3.2}% 13
\BOOKMARK [0][-]{chapter.4}{Implementazione}{}% 14
\BOOKMARK [1][-]{section.4.1}{Struttura del database}{chapter.4}% 15
\BOOKMARK [1][-]{section.4.2}{Back-end}{chapter.4}% 16
\BOOKMARK [2][-]{subsection.4.2.1}{Configurazione del database}{section.4.2}% 17
\BOOKMARK [2][-]{subsection.4.2.2}{Creazione del database}{section.4.2}% 18
\BOOKMARK [2][-]{subsection.4.2.3}{Avvio del Web Server}{section.4.2}% 19
\BOOKMARK [2][-]{subsection.4.2.4}{Creazione delle risorse}{section.4.2}% 20
\BOOKMARK [2][-]{subsection.4.2.5}{Configurazione dei Modelli e dei Controllori}{section.4.2}% 21
\BOOKMARK [1][-]{section.4.3}{Front-end}{chapter.4}% 22
\BOOKMARK [2][-]{subsection.4.3.1}{Configurazioni}{section.4.3}% 23
\BOOKMARK [2][-]{subsection.4.3.2}{Login}{section.4.3}% 24
\BOOKMARK [2][-]{subsection.4.3.3}{Home}{section.4.3}% 25
\BOOKMARK [2][-]{subsection.4.3.4}{Diario}{section.4.3}% 26
\BOOKMARK [2][-]{subsection.4.3.5}{Riunioni}{section.4.3}% 27
\BOOKMARK [0][-]{chapter.5}{Conclusioni e lavori futuri}{}% 28
\BOOKMARK [1][-]{section.5.1}{Sviluppi successivi del progetto}{chapter.5}% 29
\BOOKMARK [0][-]{chapter*.2}{Bibliografia}{}% 30
