\relax 
\providecommand\hyper@newdestlabel[2]{}
\bbl@cs{beforestart}
\providecommand\HyperFirstAtBeginDocument{\AtBeginDocument}
\HyperFirstAtBeginDocument{\ifx\hyper@anchor\@undefined
\global\let\oldcontentsline\contentsline
\gdef\contentsline#1#2#3#4{\oldcontentsline{#1}{#2}{#3}}
\global\let\oldnewlabel\newlabel
\gdef\newlabel#1#2{\newlabelxx{#1}#2}
\gdef\newlabelxx#1#2#3#4#5#6{\oldnewlabel{#1}{{#2}{#3}}}
\AtEndDocument{\ifx\hyper@anchor\@undefined
\let\contentsline\oldcontentsline
\let\newlabel\oldnewlabel
\fi}
\fi}
\global\let\hyper@last\relax 
\gdef\HyperFirstAtBeginDocument#1{#1}
\providecommand\HyField@AuxAddToFields[1]{}
\providecommand\HyField@AuxAddToCoFields[2]{}
\babel@aux{italian}{}
\babel@aux{italian}{}
\@writefile{toc}{~\hfill \textbf  {Page}\par }
\@writefile{toc}{\thispagestyle {empty}}
\@writefile{toc}{\contentsline {chapter}{\numberline {1}Introduzione}{5}{chapter.1}\protected@file@percent }
\@writefile{lof}{\addvspace {10\p@ }}
\@writefile{lot}{\addvspace {10\p@ }}
\@writefile{toc}{\contentsline {chapter}{\numberline {2}$Advenias \ Care^{\scriptsize  \textregistered }$}{7}{chapter.2}\protected@file@percent }
\@writefile{lof}{\addvspace {10\p@ }}
\@writefile{lot}{\addvspace {10\p@ }}
\@writefile{toc}{\contentsline {section}{\numberline {2.1}Stato del prodotto attuale}{7}{section.2.1}\protected@file@percent }
\citation{postgresql}
\citation{heroku}
\@writefile{toc}{\contentsline {section}{\numberline {2.2}Modulo aggiunto}{8}{section.2.2}\protected@file@percent }
\@writefile{toc}{\contentsline {subsection}{\numberline {2.2.1}Obiettivo}{8}{subsection.2.2.1}\protected@file@percent }
\@writefile{toc}{\contentsline {subsection}{\numberline {2.2.2}Specifiche}{9}{subsection.2.2.2}\protected@file@percent }
\@writefile{toc}{\contentsline {subsection}{\numberline {2.2.3}Analisi funzionale}{9}{subsection.2.2.3}\protected@file@percent }
\@writefile{toc}{\contentsline {subsubsection}{Diari di struttura}{9}{subsection.2.2.3}\protected@file@percent }
\@writefile{toc}{\contentsline {subsubsection}{Verbali di riunione}{10}{subsection.2.2.3}\protected@file@percent }
\@writefile{toc}{\contentsline {chapter}{\numberline {3}Il progetto}{13}{chapter.3}\protected@file@percent }
\@writefile{lof}{\addvspace {10\p@ }}
\@writefile{lot}{\addvspace {10\p@ }}
\@writefile{toc}{\contentsline {section}{\numberline {3.1}Progettazione}{13}{section.3.1}\protected@file@percent }
\citation{postgresql}
\@writefile{toc}{\contentsline {section}{\numberline {3.2} Tecnologie di riferimento}{14}{section.3.2}\protected@file@percent }
\citation{postgis}
\citation{ror}
\@writefile{toc}{\contentsline {subsection}{\numberline {3.2.1}BDMS}{15}{subsection.3.2.1}\protected@file@percent }
\@writefile{toc}{\contentsline {subsection}{\numberline {3.2.2}Framework Ruby on Rails}{15}{subsection.3.2.2}\protected@file@percent }
\citation{quasar}
\citation{vue}
\citation{plu}
\@writefile{toc}{\contentsline {subsection}{\numberline {3.2.3}Vue e Quasar Framework}{17}{subsection.3.2.3}\protected@file@percent }
\citation{cordova}
\@writefile{toc}{\contentsline {subsubsection}{Come creare una versione mobile della mia applicazione?}{18}{lstnumber.-2.2}\protected@file@percent }
\@writefile{lof}{\contentsline {figure}{\numberline {3.1}{\ignorespaces Presentazione dell'integrazione del modulo \textit  {strutture}(in viola) con quello già esistente(in blu) dove facciamo vedere alcune funzioni necessarie per operare sul diario e sulle riunioni. }}{20}{figure.3.1}\protected@file@percent }
\newlabel{fig:strut}{{3.1}{20}{Presentazione dell'integrazione del modulo \textit {strutture}(in viola) con quello già esistente(in blu) dove facciamo vedere alcune funzioni necessarie per operare sul diario e sulle riunioni}{figure.3.1}{}}
\@writefile{lof}{\contentsline {figure}{\numberline {3.2}{\ignorespaces Organigramma dei differenti tools, tecnologie piattaforme che useremo nel progetto .}}{21}{figure.3.2}\protected@file@percent }
\newlabel{fig:archi}{{3.2}{21}{Organigramma dei differenti tools, tecnologie piattaforme che useremo nel progetto }{figure.3.2}{}}
\@writefile{lof}{\contentsline {figure}{\numberline {3.3}{\ignorespaces Piattaforme supportate da quasar.}}{21}{figure.3.3}\protected@file@percent }
\newlabel{fig:quasar}{{3.3}{21}{Piattaforme supportate da quasar}{figure.3.3}{}}
\citation{pgAdmin4}
\@writefile{toc}{\contentsline {chapter}{\numberline {4}Implementazione}{23}{chapter.4}\protected@file@percent }
\@writefile{lof}{\addvspace {10\p@ }}
\@writefile{lot}{\addvspace {10\p@ }}
\@writefile{toc}{\contentsline {section}{\numberline {4.1}Struttura del database}{23}{section.4.1}\protected@file@percent }
\citation{migration}
\citation{ruby}
\citation{rbenv}
\@writefile{toc}{\contentsline {section}{\numberline {4.2}Back-end}{24}{section.4.2}\protected@file@percent }
\citation{rubygems}
\@writefile{lot}{\contentsline {table}{\numberline {4.1}{\ignorespaces Principali file e cartelle dove andremo a operare nel progetto}}{25}{table.4.1}\protected@file@percent }
\newlabel{table:folders}{{4.1}{25}{Principali file e cartelle dove andremo a operare nel progetto}{table.4.1}{}}
\@writefile{toc}{\contentsline {subsection}{\numberline {4.2.1}Configurazione del database}{25}{subsection.4.2.1}\protected@file@percent }
\citation{puma}
\citation{scaffolding}
\@writefile{toc}{\contentsline {subsection}{\numberline {4.2.2}Creazione del database}{27}{subsection.4.2.2}\protected@file@percent }
\@writefile{toc}{\contentsline {subsection}{\numberline {4.2.3}Avvio del Web Server}{27}{subsection.4.2.3}\protected@file@percent }
\@writefile{toc}{\contentsline {subsection}{\numberline {4.2.4}Creazione delle risorse}{27}{subsection.4.2.4}\protected@file@percent }
\citation{migrations}
\citation{active_record}
\@writefile{toc}{\contentsline {subsubsection}{Eseguire una migrazione}{28}{figure.4.3}\protected@file@percent }
\citation{active_storage}
\@writefile{toc}{\contentsline {subsection}{\numberline {4.2.5}Configurazione dei Modelli e dei Controllori}{29}{subsection.4.2.5}\protected@file@percent }
\@writefile{toc}{\contentsline {subsubsection}{Active storage}{29}{subsection.4.2.5}\protected@file@percent }
\@writefile{toc}{\contentsline {paragraph}{Allegare file ai modelli}{30}{lstnumber.-19.8}\protected@file@percent }
\@writefile{toc}{\contentsline {subsubsection}{Scops}{31}{lstnumber.-20.5}\protected@file@percent }
\@writefile{toc}{\contentsline {subsubsection}{Active Record Nested Attributes}{31}{lstnumber.-22.10}\protected@file@percent }
\@writefile{toc}{\contentsline {subsubsection}{Active Model Serialization}{33}{lstnumber.-24.12}\protected@file@percent }
\@writefile{toc}{\contentsline {section}{\numberline {4.3}Front-end}{34}{section.4.3}\protected@file@percent }
\citation{quasar-plugins}
\@writefile{toc}{\contentsline {subsection}{\numberline {4.3.1}Configurazioni}{35}{subsection.4.3.1}\protected@file@percent }
\@writefile{toc}{\contentsline {subsubsection}{Plugin}{35}{subsection.4.3.1}\protected@file@percent }
\@writefile{toc}{\contentsline {subsubsection}{Dipendenze}{36}{subsection.4.3.1}\protected@file@percent }
\@writefile{toc}{\contentsline {subsection}{\numberline {4.3.2}Login}{37}{subsection.4.3.2}\protected@file@percent }
\@writefile{toc}{\contentsline {subsection}{\numberline {4.3.3}Home}{38}{subsection.4.3.3}\protected@file@percent }
\@writefile{toc}{\contentsline {subsection}{\numberline {4.3.4}Diario}{39}{subsection.4.3.4}\protected@file@percent }
\@writefile{toc}{\contentsline {subsection}{\numberline {4.3.5}Riunioni}{41}{subsection.4.3.5}\protected@file@percent }
\@writefile{lof}{\contentsline {figure}{\numberline {4.1}{\ignorespaces Modello E-R.}}{43}{figure.4.1}\protected@file@percent }
\newlabel{fig:eer}{{4.1}{43}{Modello E-R}{figure.4.1}{}}
\@writefile{lof}{\contentsline {figure}{\numberline {4.2}{\ignorespaces pagina di default di Rails. Conferma che la nostra app funziona correttamente.}}{44}{figure.4.2}\protected@file@percent }
\newlabel{fig:defaultRails}{{4.2}{44}{pagina di default di Rails. Conferma che la nostra app funziona correttamente}{figure.4.2}{}}
\@writefile{lof}{\contentsline {figure}{\numberline {4.3}{\ignorespaces URL generati per la risorsa meeting dove è anche specificato in controllore e il metodo incaricato a rispondere alla chiamata.}}{44}{figure.4.3}\protected@file@percent }
\newlabel{fig:routes}{{4.3}{44}{URL generati per la risorsa meeting dove è anche specificato in controllore e il metodo incaricato a rispondere alla chiamata}{figure.4.3}{}}
\@writefile{lof}{\contentsline {figure}{\numberline {4.4}{\ignorespaces Pagine con relativo scheduling}}{45}{figure.4.4}\protected@file@percent }
\newlabel{fig:pages}{{4.4}{45}{Pagine con relativo scheduling}{figure.4.4}{}}
\@writefile{lof}{\contentsline {figure}{\numberline {4.5}{\ignorespaces Pagina di login}}{46}{figure.4.5}\protected@file@percent }
\newlabel{fig:loginPage}{{4.5}{46}{Pagina di login}{figure.4.5}{}}
\@writefile{lof}{\contentsline {figure}{\numberline {4.6}{\ignorespaces Pagina principale: l'operatore sceglie una struttura}}{46}{figure.4.6}\protected@file@percent }
\newlabel{fig:home1}{{4.6}{46}{Pagina principale: l'operatore sceglie una struttura}{figure.4.6}{}}
\@writefile{lof}{\contentsline {figure}{\numberline {4.7}{\ignorespaces Pagina principale del modulo. Che dà la possibilità all'operatore di consultare sia il diario che le riunioni.}}{47}{figure.4.7}\protected@file@percent }
\newlabel{fig:homePage}{{4.7}{47}{Pagina principale del modulo. Che dà la possibilità all'operatore di consultare sia il diario che le riunioni}{figure.4.7}{}}
\@writefile{lof}{\contentsline {figure}{\numberline {4.8}{\ignorespaces Pagina principale del diario}}{47}{figure.4.8}\protected@file@percent }
\newlabel{fig:diarioPage}{{4.8}{47}{Pagina principale del diario}{figure.4.8}{}}
\@writefile{lof}{\contentsline {figure}{\numberline {4.9}{\ignorespaces Pagina dedicata a una singola annotazione. è possibile consultare l'annotazione ampiamente o stamparla.}}{47}{figure.4.9}\protected@file@percent }
\newlabel{fig:annatationPage}{{4.9}{47}{Pagina dedicata a una singola annotazione. è possibile consultare l'annotazione ampiamente o stamparla}{figure.4.9}{}}
\@writefile{lof}{\contentsline {figure}{\numberline {4.10}{\ignorespaces Pagina di creazione di una nuova annotazione.}}{48}{figure.4.10}\protected@file@percent }
\newlabel{fig:nuovaAnnotazione}{{4.10}{48}{Pagina di creazione di una nuova annotazione}{figure.4.10}{}}
\@writefile{lof}{\contentsline {figure}{\numberline {4.11}{\ignorespaces Pagina di modifica di una annotazione.}}{48}{figure.4.11}\protected@file@percent }
\newlabel{fig:modificaAnnotazione}{{4.11}{48}{Pagina di modifica di una annotazione}{figure.4.11}{}}
\@writefile{lof}{\contentsline {figure}{\numberline {4.12}{\ignorespaces Pagina principale delle riunioni.}}{49}{figure.4.12}\protected@file@percent }
\newlabel{fig:meetingsPage}{{4.12}{49}{Pagina principale delle riunioni}{figure.4.12}{}}
\@writefile{lof}{\contentsline {figure}{\numberline {4.13}{\ignorespaces Pagina dedicata a una singola riunione. è possibile consultare la riunione ampiamente, dare il consenso di partecipazione o stamparla}}{49}{figure.4.13}\protected@file@percent }
\newlabel{fig:singleMeeting}{{4.13}{49}{Pagina dedicata a una singola riunione. è possibile consultare la riunione ampiamente, dare il consenso di partecipazione o stamparla}{figure.4.13}{}}
\@writefile{lof}{\contentsline {figure}{\numberline {4.14}{\ignorespaces Pagina di creazione di una nuova riunione}}{50}{figure.4.14}\protected@file@percent }
\newlabel{fig:newMeeting}{{4.14}{50}{Pagina di creazione di una nuova riunione}{figure.4.14}{}}
\@writefile{lof}{\contentsline {figure}{\numberline {4.15}{\ignorespaces Pagina di modifica di una riunione}}{50}{figure.4.15}\protected@file@percent }
\newlabel{fig:editMeeting}{{4.15}{50}{Pagina di modifica di una riunione}{figure.4.15}{}}
\@writefile{toc}{\contentsline {chapter}{\numberline {5}Conclusioni e lavori futuri}{51}{chapter.5}\protected@file@percent }
\@writefile{lof}{\addvspace {10\p@ }}
\@writefile{lot}{\addvspace {10\p@ }}
\@writefile{toc}{\contentsline {section}{\numberline {5.1}Sviluppi successivi del progetto}{52}{section.5.1}\protected@file@percent }
\bibcite{postgresql}{1}
\bibcite{postgis}{2}
\bibcite{heroku}{3}
\bibcite{ror}{4}
\bibcite{quasar}{5}
\bibcite{vue}{6}
\bibcite{plu}{7}
\bibcite{cordova}{8}
\bibcite{pgAdmin4}{9}
\bibcite{migration}{10}
\bibcite{ruby}{11}
\bibcite{rbenv}{12}
\bibcite{rubygems}{13}
\bibcite{puma}{14}
\bibcite{scaffolding}{15}
\@writefile{toc}{\contentsline {chapter}{Bibliografia}{53}{chapter*.2}\protected@file@percent }
\bibcite{migrations}{16}
\bibcite{active_record}{17}
\bibcite{active_storage}{18}
\bibcite{quasar-plugins}{19}
